…
```
## [1] 10765
```
## What is the average daily activity pattern?
Time series plot:

```r
interval_steps<-(data_complete %>% group_by(interval)%>%summarise(steps=mean(steps)))
interval_steps
```

```
## # A tibble: 288 × 2
##    interval  steps
##       <int>  <dbl>
##  1        0 1.72  
##  2        5 0.340 
##  3       10 0.132 
##  4       15 0.151 
##  5       20 0.0755
##  6       25 2.09  
##  7       30 0.528 
##  8       35 0.868 
##  9       40 0     
## 10       45 1.47  
## # … with 278 more rows
```
…
```r
data_complete <- na.omit(data)
meansteps = mean(data_complete$steps)
repdf<- data%>%replace(is.na(.),meansteps)
```
Now make histogram of total steps each day

```r
daily_steps<-(repdf%>%group_by(date)%>%summarise(steps=sum(steps)))
daily_steps
```

```
## # A tibble: 61 × 2
##    date        steps
##    <chr>       <dbl>
##  1 2012-10-01 10766.
##  2 2012-10-02   126 
##  3 2012-10-03 11352 
##  4 2012-10-04 12116 
##  5 2012-10-05 13294 
##  6 2012-10-06 15420 
##  7 2012-10-07 11015 
##  8 2012-10-08 10766.
##  9 2012-10-09 12811 
## 10 2012-10-10  9900 
## # … with 51 more rows
```
…
